INDEX VERSION 1.131+/home/cmolina/DESARROLLO/cursos/pildoras/java/WorkspaceSPRINT/.metadata/.plugins/org.eclipse.jdt.core
787412172.index
2636475120.index
563554345.index
1290924635.index
3089576461.index
3157293207.index
1853938879.index
3148490892.index
3707552124.index
1573483864.index
1057377138.index
659704468.index
944358464.index
2110073970.index
985531065.index
2523682517.index
2874801029.index
2938624603.index
483486157.index
474235250.index
2001725721.index
3908125952.index
1816771113.index
737342691.index
4064716302.index
3334087128.index
3167593059.index
3585963884.index
177531124.index
2772902745.index
1314765317.index
2145320280.index
3266145090.index
386967145.index
1846938071.index
73787786.index
3296578335.index
3940186079.index
995212122.index
2855368545.index
654841318.index
497815807.index
3570136661.index
4081253095.index
2510110080.index
1778467661.index
1227248648.index
338230532.index
1147106911.index
3884418055.index
1681927008.index
3228205445.index
3423641685.index
385280373.index
2402901554.index
1235990227.index
4080863577.index
444272884.index
1740899979.index
2074337495.index
1763687794.index
3060290892.index
1404653896.index
1260601324.index
967501340.index
3176372237.index
1658946732.index
215856201.index
665730193.index
2804466480.index
3108295319.index
3974500250.index
718826319.index
3517595126.index
3906405132.index
684416358.index
3414951141.index
629170867.index
1051281443.index
3292013916.index
2142546509.index
2124439610.index
2790272882.index
1033059624.index
351048699.index
1653238902.index
1526307093.index
3953889915.index
3660664866.index
1656916124.index
1180275857.index
1691647877.index
2921741819.index
3919285477.index
539051563.index
1942562929.index
4132564116.index
1623405855.index
2994675670.index
2457541711.index
408095720.index
2039217099.index
2468327436.index
2816663968.index
2988699237.index
591724558.index
2941169951.index
870587299.index
1548471563.index
2347327810.index
379001146.index
2368985719.index
1518947193.index
1406500282.index
3839757057.index
1418327644.index
2696833606.index
3932118802.index
2442933513.index
964982706.index
2753129369.index
4155798766.index
3101354233.index
4022130913.index
724208498.index
243507822.index
1046758919.index
1587413475.index
3267730589.index
3216859670.index
94661471.index
1346375564.index
1788319269.index
2011063019.index
2202197412.index
938692921.index
1012829914.index
3727039160.index
108693522.index
3150928503.index
2627314907.index
3335706119.index
1725284870.index
3189810541.index
3012841437.index
911356692.index
147521235.index
3230177760.index
2685280515.index
1482459025.index
3298808698.index
1608709447.index
1924496927.index
1935188867.index
3198897152.index
2107421009.index
2335052968.index
3972024726.index
1114521485.index
3056903423.index
4698300.index
474038721.index
1471028178.index
1507165953.index
7512848.index
599356939.index
3418684914.index
1035840646.index
3934677135.index
589258620.index
2738850218.index
980618397.index
1182364951.index
2533948054.index
1061614016.index
108585274.index
408292187.index
310399904.index
3740268373.index
1078475973.index
4149588093.index
1223080129.index
1415005462.index
159913393.index
1790775016.index
3355962063.index
581553940.index
415638359.index
2270533438.index
3923586235.index
40872864.index
72415782.index
510417518.index
